3/Part 1/simulation/qsim/Lab3_Part1.msim.vcd
$comment
	File created using the following command:
		vcd file Lab3_Part1.msim.vcd -direction
$end
$date
	Tue Sep 30 19:50:28 2014
$end
$version
	ModelSim Version 10.1d
$end
$timescale
	1ps
$end
$scope module Lab3_Part1_vlg_vec_tst $end
$var reg 2 ! KEY [1:0] $end
$var reg 18 " SW [17:0] $end
$var wire 1 # LEDG [7] $end
$var wire 1 $ LEDG [6] $end
$var wire 1 % LEDG [5] $end
$var wire 1 & LEDG [4] $end
$var wire 1 ' LEDG [3] $end
$var wire 1 ( LEDG [2] $end
$var wire 1 ) LEDG [1] $end
$var wire 1 * LEDG [0] $end
$var wire 1 + LEDR [17] $end
$var wire 1 , LEDR [16] $end
$var wire 1 - LEDR [15] $end
$var wire 1 . LEDR [14] $end
$var wire 1 / LEDR [13] $end
$var wire 1 0 LEDR [12] $end
$var wire 1 1 LEDR [11] $end
$var wire 1 2 LEDR [10] $end
$var wire 1 3 LEDR [9] $end
$var wire 1 4 LEDR [8] $end
$var wire 1 5 LEDR [7] $end
$var wire 1 6 LEDR [6] $end
$var wire 1 7 LEDR [5] $end
$var wire 1 8 LEDR [4] $end
$var wire 1 9 LEDR [3] $end
$var wire 1 : LEDR [2] $end
$var wire 1 ; LEDR [1] $end
$var wire 1 < LEDR [0] $end
$var wire 1 = sampler $end
$scope module i1 $end
$var wire 1 > gnd $end
$var wire 1 ? vcc $end
$var wire 1 @ unknown $end
$var tri1 1 A devclrn $end
$var tri1 1 B devpor $end
$var tri1 1 C devoe $end
$var wire 1 D comb_5|comb~1_combout $end
$var wire 1 E comb_5|comb~0_combout $end
$var wire 1 F SW~combout [17] $end
$var wire 1 G SW~combout [16] $end
$var wire 1 H SW~combout [15] $end
$var wire 1 I SW~combout [14] $end
$var wire 1 J SW~combout [13] $end
$var wire 1 K SW~combout [12] $end
$var wire 1 L SW~combout [11] $end
$var wire 1 M SW~combout [10] $end
$var wire 1 N SW~combout [9] $end
$var wire 1 O SW~combout [8] $end
$var wire 1 P SW~combout [7] $end
$var wire 1 Q SW~combout [6] $end
$var wire 1 R SW~combout [5] $end
$var wire 1 S SW~combout [4] $end
$var wire 1 T SW~combout [3] $end
$var wire 1 U SW~combout [2] $end
$var wire 1 V SW~combout [1] $end
$var wire 1 W SW~combout [0] $end
$var wire 1 X KEY~combout [1] $end
$var wire 1 Y KEY~combout [0] $end
$upscope $end
$upscope $end
$enddefinitions $end
#0
$dumpvars
b0x !
bx00 "
x*
x)
0(
0'
0&
0%
0$
0#
0<
0;
x:
x9
x8
x7
x6
x5
x4
x3
x2
x1
x0
x/
x.
x-
x,
x+
x=
0>
1?
x@
1A
1B
1C
xD
xE
0W
0V
xU
xT
xS
xR
xQ
xP
xO
xN
xM
xL
xK
xJ
xI
xH
xG
xF
zY
0X
$end
#100000
b1x !
1X
0=
#160000
bx01 "
1W
1=
1<
#200000
b0x !
0X
0=
1D
0E
0)
1*
#280000
bx00 "
0W
1=
0<
#300000
b1x !
1X
0=
#400000
b0x !
0X
1=
#500000
b1x !
1X
0=
#540000
bx10 "
1V
1=
1;
#600000
b0x !
0X
0=
1E
0D
0*
1)
#660000
bx00 "
0V
1=
0;
#700000
b1x !
1X
0=
#800000
b0x !
0X
1=
#900000
b1x !
1X
0=
